Library/Bee/artifacts/mvdfrm/UnityEditor.TestRunner.ref.dll_84C42244F0436F2D.mvfrm
Library/Bee/artifacts/mvdfrm/UnityEngine.TestRunner.ref.dll_50E26CF31C06CD18.mvfrm
Library/Bee/artifacts/mvdfrm/UnityEngine.UI.ref.dll_7A28423D4A766FDA.mvfrm
Library/Bee/artifacts/mvdfrm/UnityEditor.Graphs.dll_F396524393959BC6.mvfrm
Library/Bee/artifacts/mvdfrm/UnityEditor.CoreModule.dll_CC6E673884E9A594.mvfrm
Library/Bee/artifacts/mvdfrm/UnityEditor.DeviceSimulatorModule.dll_B812C847151C286D.mvfrm
Library/Bee/artifacts/mvdfrm/UnityEditor.DiagnosticsModule.dll_442C031DA9DCF77B.mvfrm
Library/Bee/artifacts/mvdfrm/UnityEditor.GraphViewModule.dll_DFECC4B4A49979F2.mvfrm
Library/Bee/artifacts/mvdfrm/UnityEditor.PackageManagerUIModule.dll_B0E4A74E9FBAE1F0.mvfrm
Library/Bee/artifacts/mvdfrm/UnityEditor.QuickSearchModule.dll_CF3B842B02B3F3D4.mvfrm
Library/Bee/artifacts/mvdfrm/UnityEditor.SceneTemplateModule.dll_C04CC6DFBB0AB4D5.mvfrm
Library/Bee/artifacts/mvdfrm/UnityEditor.TextCoreFontEngineModule.dll_9D8A0C79DAE12092.mvfrm
Library/Bee/artifacts/mvdfrm/UnityEditor.TextCoreTextEngineModule.dll_E57242EB6A64D9B0.mvfrm
Library/Bee/artifacts/mvdfrm/UnityEditor.UIBuilderModule.dll_347571D11751F326.mvfrm
Library/Bee/artifacts/mvdfrm/UnityEditor.UIElementsModule.dll_1B571A724B249450.mvfrm
Library/Bee/artifacts/mvdfrm/UnityEditor.UIElementsSamplesModule.dll_002CA4488A56421D.mvfrm
Library/Bee/artifacts/mvdfrm/UnityEditor.UIServiceModule.dll_6D67833400894340.mvfrm
Library/Bee/artifacts/mvdfrm/UnityEditor.UnityConnectModule.dll_5B431D9A9B8D1E4A.mvfrm
Library/Bee/artifacts/mvdfrm/UnityEditor.dll_1501167C3DAE8FC1.mvfrm
Library/Bee/artifacts/mvdfrm/UnityEngine.AIModule.dll_21B45857EE488968.mvfrm
Library/Bee/artifacts/mvdfrm/UnityEngine.ARModule.dll_DB271D5B4B65E831.mvfrm
Library/Bee/artifacts/mvdfrm/UnityEngine.AccessibilityModule.dll_F2F23276BB80DC72.mvfrm
Library/Bee/artifacts/mvdfrm/UnityEngine.AndroidJNIModule.dll_99A0034594440326.mvfrm
Library/Bee/artifacts/mvdfrm/UnityEngine.AnimationModule.dll_AE7240DD7EF64E98.mvfrm
Library/Bee/artifacts/mvdfrm/UnityEngine.AssetBundleModule.dll_1324B71C651AA8C6.mvfrm
Library/Bee/artifacts/mvdfrm/UnityEngine.AudioModule.dll_D9BB5A9C2DB6498A.mvfrm
Library/Bee/artifacts/mvdfrm/UnityEngine.ClothModule.dll_40A3B79707D3286E.mvfrm
Library/Bee/artifacts/mvdfrm/UnityEngine.ClusterInputModule.dll_DADF92B04D14F110.mvfrm
Library/Bee/artifacts/mvdfrm/UnityEngine.ClusterRendererModule.dll_BDBF8AB884D735F1.mvfrm
Library/Bee/artifacts/mvdfrm/UnityEngine.CoreModule.dll_EF8F3A8B2CEF10BF.mvfrm
Library/Bee/artifacts/mvdfrm/UnityEngine.CrashReportingModule.dll_DB8ABDD92A5E11B7.mvfrm
Library/Bee/artifacts/mvdfrm/UnityEngine.DSPGraphModule.dll_FBF4CDF8EB2AE7BD.mvfrm
Library/Bee/artifacts/mvdfrm/UnityEngine.DirectorModule.dll_F6A36C8F78CA169C.mvfrm
Library/Bee/artifacts/mvdfrm/UnityEngine.GIModule.dll_B9F0A16589F77182.mvfrm
Library/Bee/artifacts/mvdfrm/UnityEngine.GameCenterModule.dll_C3ED4D605A84F417.mvfrm
Library/Bee/artifacts/mvdfrm/UnityEngine.GridModule.dll_CD0056794543A6B6.mvfrm
Library/Bee/artifacts/mvdfrm/UnityEngine.HotReloadModule.dll_2FBAFEE35A296A1A.mvfrm
Library/Bee/artifacts/mvdfrm/UnityEngine.IMGUIModule.dll_121AFA02F3E7DD6B.mvfrm
Library/Bee/artifacts/mvdfrm/UnityEngine.ImageConversionModule.dll_29B1886906FBEDE5.mvfrm
Library/Bee/artifacts/mvdfrm/UnityEngine.InputLegacyModule.dll_A469D23AFD0C5EB7.mvfrm
Library/Bee/artifacts/mvdfrm/UnityEngine.InputModule.dll_4031224CA3EE6E2E.mvfrm
Library/Bee/artifacts/mvdfrm/UnityEngine.JSONSerializeModule.dll_5309BBB2BABC3CFC.mvfrm
Library/Bee/artifacts/mvdfrm/UnityEngine.LocalizationModule.dll_192C5D02E490E409.mvfrm
Library/Bee/artifacts/mvdfrm/UnityEngine.NVIDIAModule.dll_23AEFD057662630B.mvfrm
Library/Bee/artifacts/mvdfrm/UnityEngine.ParticleSystemModule.dll_2E9D0725986F9D45.mvfrm
Library/Bee/artifacts/mvdfrm/UnityEngine.PerformanceReportingModule.dll_8DEEE6F453B9247E.mvfrm
Library/Bee/artifacts/mvdfrm/UnityEngine.Physics2DModule.dll_FB1830CE1FF3462D.mvfrm
Library/Bee/artifacts/mvdfrm/UnityEngine.PhysicsModule.dll_A8E22A3F7ACCE99B.mvfrm
Library/Bee/artifacts/mvdfrm/UnityEngine.ProfilerModule.dll_28E9A5C612239DA9.mvfrm
Library/Bee/artifacts/mvdfrm/UnityEngine.RuntimeInitializeOnLoadManagerInitializerModule.dll_96FD948F2A0490F6.mvfrm
Library/Bee/artifacts/mvdfrm/UnityEngine.ScreenCaptureModule.dll_6CF16937CF28695E.mvfrm
Library/Bee/artifacts/mvdfrm/UnityEngine.SharedInternalsModule.dll_ADC2C73E7E29E935.mvfrm
Library/Bee/artifacts/mvdfrm/UnityEngine.SpriteMaskModule.dll_AD19BFF07BF48991.mvfrm
Library/Bee/artifacts/mvdfrm/UnityEngine.SpriteShapeModule.dll_2C85E4771ABCE0D0.mvfrm
Library/Bee/artifacts/mvdfrm/UnityEngine.StreamingModule.dll_63072E2DCE7E05D6.mvfrm
Library/Bee/artifacts/mvdfrm/UnityEngine.SubstanceModule.dll_3FB2427719D103E4.mvfrm
Library/Bee/artifacts/mvdfrm/UnityEngine.SubsystemsModule.dll_17C726524A3C71A4.mvfrm
Library/Bee/artifacts/mvdfrm/UnityEngine.TLSModule.dll_3B057418DBF6DBAF.mvfrm
Library/Bee/artifacts/mvdfrm/UnityEngine.TerrainModule.dll_C328A5AE508B3289.mvfrm
Library/Bee/artifacts/mvdfrm/UnityEngine.TerrainPhysicsModule.dll_2F17AFF8B1B297D2.mvfrm
Library/Bee/artifacts/mvdfrm/UnityEngine.TextCoreFontEngineModule.dll_1BE987CCEDDEDF5D.mvfrm
Library/Bee/artifacts/mvdfrm/UnityEngine.TextCoreTextEngineModule.dll_63D1BE3E7D62987B.mvfrm
Library/Bee/artifacts/mvdfrm/UnityEngine.TextRenderingModule.dll_9630DB42865FE953.mvfrm
Library/Bee/artifacts/mvdfrm/UnityEngine.TilemapModule.dll_62250D2F68481392.mvfrm
Library/Bee/artifacts/mvdfrm/UnityEngine.UIElementsModule.dll_1C0587BA4D68AD9B.mvfrm
Library/Bee/artifacts/mvdfrm/UnityEngine.UIElementsNativeModule.dll_FB5E5BE411335212.mvfrm
Library/Bee/artifacts/mvdfrm/UnityEngine.UIModule.dll_1D27F6854A8F8F14.mvfrm
Library/Bee/artifacts/mvdfrm/UnityEngine.UNETModule.dll_8235827479FE0638.mvfrm
Library/Bee/artifacts/mvdfrm/UnityEngine.UmbraModule.dll_549006B4BADCF4FD.mvfrm
Library/Bee/artifacts/mvdfrm/UnityEngine.UnityAnalyticsCommonModule.dll_292DA4386DA1C2DC.mvfrm
Library/Bee/artifacts/mvdfrm/UnityEngine.UnityAnalyticsModule.dll_4E3C77EF4496EF41.mvfrm
Library/Bee/artifacts/mvdfrm/UnityEngine.UnityConnectModule.dll_48A2A1A996151EF5.mvfrm
Library/Bee/artifacts/mvdfrm/UnityEngine.UnityCurlModule.dll_E18EE20EEF0A4085.mvfrm
Library/Bee/artifacts/mvdfrm/UnityEngine.UnityTestProtocolModule.dll_BBEF5A3AE4519773.mvfrm
Library/Bee/artifacts/mvdfrm/UnityEngine.UnityWebRequestAssetBundleModule.dll_CDD653F6269B1AD2.mvfrm
Library/Bee/artifacts/mvdfrm/UnityEngine.UnityWebRequestAudioModule.dll_05EB3AD2DA23EF16.mvfrm
Library/Bee/artifacts/mvdfrm/UnityEngine.UnityWebRequestModule.dll_3B50901311F08864.mvfrm
Library/Bee/artifacts/mvdfrm/UnityEngine.UnityWebRequestTextureModule.dll_DBC4C3EA081AE3AB.mvfrm
Library/Bee/artifacts/mvdfrm/UnityEngine.UnityWebRequestWWWModule.dll_2E94039A6D2254E7.mvfrm
Library/Bee/artifacts/mvdfrm/UnityEngine.VFXModule.dll_BBE40C87B264451C.mvfrm
Library/Bee/artifacts/mvdfrm/UnityEngine.VRModule.dll_6FFA1D0AEC4A148C.mvfrm
Library/Bee/artifacts/mvdfrm/UnityEngine.VehiclesModule.dll_6E66660EF2F3E637.mvfrm
Library/Bee/artifacts/mvdfrm/UnityEngine.VideoModule.dll_FEC4DF06F048652F.mvfrm
Library/Bee/artifacts/mvdfrm/UnityEngine.VirtualTexturingModule.dll_1FEB1052E9E1D29D.mvfrm
Library/Bee/artifacts/mvdfrm/UnityEngine.WindModule.dll_65DE15B3BE258F28.mvfrm
Library/Bee/artifacts/mvdfrm/UnityEngine.XRModule.dll_A2B8E00F758461EA.mvfrm
Library/Bee/artifacts/mvdfrm/UnityEngine.dll_47A55D549C221CA6.mvfrm
Library/Bee/artifacts/mvdfrm/UnityEditor.LinuxStandalone.Extensions.dll_D4BFDAD28C052F7C.mvfrm
Library/Bee/artifacts/mvdfrm/UnityEngine.WebGLModule.dll_AD46AB6FD0F433A3.mvfrm
Library/Bee/artifacts/mvdfrm/UnityEditor.WebGL.Extensions.dll_898CAB240DB7645C.mvfrm
Library/Bee/artifacts/mvdfrm/Unity.Burst.Cecil.Mdb.dll_4F77898A6F6D5C59.mvfrm
Library/Bee/artifacts/mvdfrm/Unity.Burst.Cecil.Pdb.dll_66CA01F9EE225DDC.mvfrm
Library/Bee/artifacts/mvdfrm/Unity.Burst.Cecil.Rocks.dll_8CD1B8E3AF8B717C.mvfrm
Library/Bee/artifacts/mvdfrm/Unity.Burst.Cecil.dll_23F2B3E94438721C.mvfrm
Library/Bee/artifacts/mvdfrm/Unity.Burst.Unsafe.dll_9A8AE3D6BCE363B7.mvfrm
Library/Bee/artifacts/mvdfrm/Unity.Plastic.Antlr3.Runtime.dll_2DD9BDD08CBEF47C.mvfrm
Library/Bee/artifacts/mvdfrm/Unity.Plastic.Newtonsoft.Json.dll_A309215837A392F9.mvfrm
Library/Bee/artifacts/mvdfrm/Unity.VisualScripting.IonicZip.dll_206DB881E8344C75.mvfrm
Library/Bee/artifacts/mvdfrm/Unity.VisualScripting.YamlDotNet.dll_A48E18C1986D1397.mvfrm
Library/Bee/artifacts/mvdfrm/Unity.VisualScripting.TextureAssets.dll_3BAC4215593A718F.mvfrm
Library/Bee/artifacts/mvdfrm/Unity.VisualScripting.Antlr3.Runtime.dll_55FB3FA2C93623B6.mvfrm