Library/Bee/artifacts/mvdfrm/Unity.2D.Common.Runtime.ref.dll_5BE1C36C56BA6FFA.mvfrm
Library/Bee/artifacts/mvdfrm/Unity.Burst.ref.dll_96C9F3316A8E30B9.mvfrm
Library/Bee/artifacts/mvdfrm/Unity.InternalAPIEngineBridge.001.ref.dll_2625A6EDA7C5CEF4.mvfrm
Library/Bee/artifacts/mvdfrm/Unity.Mathematics.ref.dll_C72EBE726BBE86FF.mvfrm
Library/Bee/artifacts/mvdfrm/UnityEngine.UI.ref.dll_6C1073D56147DE5F.mvfrm
Library/Bee/artifacts/mvdfrm/UnityEngine.AIModule.dll_B12450B90504E632.mvfrm
Library/Bee/artifacts/mvdfrm/UnityEngine.AccessibilityModule.dll_7BF37DF98E6EDFC8.mvfrm
Library/Bee/artifacts/mvdfrm/UnityEngine.AndroidJNIModule.dll_5A4868570B74C4F0.mvfrm
Library/Bee/artifacts/mvdfrm/UnityEngine.AnimationModule.dll_C7C46348120A8C6E.mvfrm
Library/Bee/artifacts/mvdfrm/UnityEngine.AssetBundleModule.dll_299F8F8178D49D5C.mvfrm
Library/Bee/artifacts/mvdfrm/UnityEngine.AudioModule.dll_0DDA3660DF1E21E0.mvfrm
Library/Bee/artifacts/mvdfrm/UnityEngine.ClothModule.dll_74C2935BB93B00C4.mvfrm
Library/Bee/artifacts/mvdfrm/UnityEngine.CoreModule.dll_E4F5866B94694AC9.mvfrm
Library/Bee/artifacts/mvdfrm/UnityEngine.CrashReportingModule.dll_98DE51D8EEE7F601.mvfrm
Library/Bee/artifacts/mvdfrm/UnityEngine.DSPGraphModule.dll_B6FA704437FA5447.mvfrm
Library/Bee/artifacts/mvdfrm/UnityEngine.DirectorModule.dll_B1A90EDAC5998326.mvfrm
Library/Bee/artifacts/mvdfrm/UnityEngine.GIModule.dll_496099C6A0B3CE4C.mvfrm
Library/Bee/artifacts/mvdfrm/UnityEngine.GameCenterModule.dll_8495B271D1B5B5E1.mvfrm
Library/Bee/artifacts/mvdfrm/UnityEngine.GridModule.dll_C266A259ACBDE0C0.mvfrm
Library/Bee/artifacts/mvdfrm/UnityEngine.HotReloadModule.dll_490D214DED3DA7F0.mvfrm
Library/Bee/artifacts/mvdfrm/UnityEngine.IMGUIModule.dll_4639D5C7A54FB5C1.mvfrm
Library/Bee/artifacts/mvdfrm/UnityEngine.ImageConversionModule.dll_07755EE6176757FB.mvfrm
Library/Bee/artifacts/mvdfrm/UnityEngine.InputLegacyModule.dll_BAE4AAA010C6534D.mvfrm
Library/Bee/artifacts/mvdfrm/UnityEngine.InputModule.dll_744FFE1155564684.mvfrm
Library/Bee/artifacts/mvdfrm/UnityEngine.JSONSerializeModule.dll_DC0B07358DAA4052.mvfrm
Library/Bee/artifacts/mvdfrm/UnityEngine.LocalizationModule.dll_56B85287B02E2313.mvfrm
Library/Bee/artifacts/mvdfrm/UnityEngine.ParticleSystemModule.dll_EBF09B255CF9818F.mvfrm
Library/Bee/artifacts/mvdfrm/UnityEngine.PerformanceReportingModule.dll_3F23BF0D17FBE888.mvfrm
Library/Bee/artifacts/mvdfrm/UnityEngine.Physics2DModule.dll_146A5338B3078403.mvfrm
Library/Bee/artifacts/mvdfrm/UnityEngine.PhysicsModule.dll_66E6F986B56EC8B1.mvfrm
Library/Bee/artifacts/mvdfrm/UnityEngine.ProfilerModule.dll_E3EF48115EF30A33.mvfrm
Library/Bee/artifacts/mvdfrm/UnityEngine.RuntimeInitializeOnLoadManagerInitializerModule.dll_5CF4A4F139BD7ACC.mvfrm
Library/Bee/artifacts/mvdfrm/UnityEngine.ScreenCaptureModule.dll_F5F2B4BAA2166CB4.mvfrm
Library/Bee/artifacts/mvdfrm/UnityEngine.SharedInternalsModule.dll_8B869DBB8E95534B.mvfrm
Library/Bee/artifacts/mvdfrm/UnityEngine.SpriteMaskModule.dll_6DC22501F3254B5B.mvfrm
Library/Bee/artifacts/mvdfrm/UnityEngine.SpriteShapeModule.dll_4300BCDC2E76D566.mvfrm
Library/Bee/artifacts/mvdfrm/UnityEngine.StreamingModule.dll_7C595098619243AC.mvfrm
Library/Bee/artifacts/mvdfrm/UnityEngine.SubstanceModule.dll_590464E1ACE541BA.mvfrm
Library/Bee/artifacts/mvdfrm/UnityEngine.SubsystemsModule.dll_D86F8B63C16D336E.mvfrm
Library/Bee/artifacts/mvdfrm/UnityEngine.TLSModule.dll_91E4F1394BC20545.mvfrm
Library/Bee/artifacts/mvdfrm/UnityEngine.TerrainModule.dll_812D74F58B2D119F.mvfrm
Library/Bee/artifacts/mvdfrm/UnityEngine.TerrainPhysicsModule.dll_EC6B43F8763C7C1C.mvfrm
Library/Bee/artifacts/mvdfrm/UnityEngine.TextCoreFontEngineModule.dll_75FFC96A22B68627.mvfrm
Library/Bee/artifacts/mvdfrm/UnityEngine.TextCoreTextEngineModule.dll_BDE7FFDBB23A3F45.mvfrm
Library/Bee/artifacts/mvdfrm/UnityEngine.TextRenderingModule.dll_1F3226C5594DECA9.mvfrm
Library/Bee/artifacts/mvdfrm/UnityEngine.TilemapModule.dll_2029DC76A2E9F2A8.mvfrm
Library/Bee/artifacts/mvdfrm/UnityEngine.UIElementsModule.dll_DCADECCBC4996F65.mvfrm
Library/Bee/artifacts/mvdfrm/UnityEngine.UIElementsNativeModule.dll_B9E53078FE3F039C.mvfrm
Library/Bee/artifacts/mvdfrm/UnityEngine.UIModule.dll_AC97EEE6614BEBDE.mvfrm
Library/Bee/artifacts/mvdfrm/UnityEngine.UNETModule.dll_779BCE54E1784042.mvfrm
Library/Bee/artifacts/mvdfrm/UnityEngine.UmbraModule.dll_88AEE2796C44CD53.mvfrm
Library/Bee/artifacts/mvdfrm/UnityEngine.UnityAnalyticsCommonModule.dll_DA627C5131E486E6.mvfrm
Library/Bee/artifacts/mvdfrm/UnityEngine.UnityAnalyticsModule.dll_0B900BEF0920D38B.mvfrm
Library/Bee/artifacts/mvdfrm/UnityEngine.UnityConnectModule.dll_862E972E61B25DFF.mvfrm
Library/Bee/artifacts/mvdfrm/UnityEngine.UnityCurlModule.dll_FAE10479821E7E5B.mvfrm
Library/Bee/artifacts/mvdfrm/UnityEngine.UnityTestProtocolModule.dll_3001B872059EC049.mvfrm
Library/Bee/artifacts/mvdfrm/UnityEngine.UnityWebRequestAssetBundleModule.dll_A53C3A3A8F8C269C.mvfrm
Library/Bee/artifacts/mvdfrm/UnityEngine.UnityWebRequestAudioModule.dll_B72012EB9E66B320.mvfrm
Library/Bee/artifacts/mvdfrm/UnityEngine.UnityWebRequestModule.dll_19146690225BF27A.mvfrm
Library/Bee/artifacts/mvdfrm/UnityEngine.UnityWebRequestTextureModule.dll_FA932D1C585CECF5.mvfrm
Library/Bee/artifacts/mvdfrm/UnityEngine.UnityWebRequestWWWModule.dll_88AA4537A1F9FBB1.mvfrm
Library/Bee/artifacts/mvdfrm/UnityEngine.VFXModule.dll_12C389A8222F6EB2.mvfrm
Library/Bee/artifacts/mvdfrm/UnityEngine.VRModule.dll_FF6A156C03067156.mvfrm
Library/Bee/artifacts/mvdfrm/UnityEngine.VehiclesModule.dll_296C085A3FC352C1.mvfrm
Library/Bee/artifacts/mvdfrm/UnityEngine.VideoModule.dll_32E3BACBA1B03D85.mvfrm
Library/Bee/artifacts/mvdfrm/UnityEngine.WebGLModule.dll_AD46AB6FD0F433A3.mvfrm
Library/Bee/artifacts/mvdfrm/UnityEngine.WindModule.dll_5B446194259FC932.mvfrm
Library/Bee/artifacts/mvdfrm/UnityEngine.XRModule.dll_3228D8708C40BEB4.mvfrm
Library/Bee/artifacts/mvdfrm/UnityEngine.dll_88A47BA98425047C.mvfrm
Library/Bee/artifacts/mvdfrm/Unity.Burst.Cecil.Mdb.dll_4F77898A6F6D5C59.mvfrm
Library/Bee/artifacts/mvdfrm/Unity.Burst.Cecil.Pdb.dll_66CA01F9EE225DDC.mvfrm
Library/Bee/artifacts/mvdfrm/Unity.Burst.Cecil.Rocks.dll_8CD1B8E3AF8B717C.mvfrm
Library/Bee/artifacts/mvdfrm/Unity.Burst.Cecil.dll_23F2B3E94438721C.mvfrm
Library/Bee/artifacts/mvdfrm/Unity.Burst.Unsafe.dll_9A8AE3D6BCE363B7.mvfrm
Library/Bee/artifacts/mvdfrm/Unity.VisualScripting.Antlr3.Runtime.dll_55FB3FA2C93623B6.mvfrm