-a="/media/amy/hydrogen_drive/main_storage/unity_projects/Rootkeep/Library/PlayerScriptAssemblies/Assembly-CSharp.dll"
-a="/media/amy/hydrogen_drive/main_storage/unity_projects/Rootkeep/Library/PlayerScriptAssemblies/Unity.2D.Tilemap.Extras.dll"
-a="/media/amy/hydrogen_drive/main_storage/unity_projects/Rootkeep/Library/PlayerScriptAssemblies/Unity.InternalAPIEngineBridge.001.dll"
-a="/media/amy/hydrogen_drive/main_storage/unity_projects/Rootkeep/Library/PlayerScriptAssemblies/Unity.2D.PixelPerfect.dll"
-a="/media/amy/hydrogen_drive/main_storage/unity_projects/Rootkeep/Library/PlayerScriptAssemblies/UnityEngine.TestRunner.dll"
-a="/media/amy/hydrogen_drive/main_storage/unity_projects/Rootkeep/Library/PlayerScriptAssemblies/Unity.Timeline.dll"
-a="/media/amy/hydrogen_drive/main_storage/unity_projects/Rootkeep/Library/PlayerScriptAssemblies/Unity.TextMeshPro.dll"
-a="/media/amy/hydrogen_drive/main_storage/unity_projects/Rootkeep/Library/PlayerScriptAssemblies/Unity.VisualScripting.Flow.dll"
-a="/media/amy/hydrogen_drive/main_storage/unity_projects/Rootkeep/Library/PlayerScriptAssemblies/UnityEngine.UI.dll"
-a="/media/amy/hydrogen_drive/main_storage/unity_projects/Rootkeep/Library/PlayerScriptAssemblies/Unity.VisualScripting.Core.dll"
-a="/media/amy/hydrogen_drive/main_storage/unity_projects/Rootkeep/Library/PlayerScriptAssemblies/Unity.Mathematics.dll"
-a="/media/amy/hydrogen_drive/main_storage/unity_projects/Rootkeep/Library/PlayerScriptAssemblies/Unity.2D.IK.Runtime.dll"
-a="/media/amy/hydrogen_drive/main_storage/unity_projects/Rootkeep/Library/PlayerScriptAssemblies/Unity.Burst.dll"
-a="/media/amy/hydrogen_drive/main_storage/unity_projects/Rootkeep/Library/PlayerScriptAssemblies/Unity.2D.Animation.Runtime.dll"
-a="/media/amy/hydrogen_drive/main_storage/unity_projects/Rootkeep/Library/PlayerScriptAssemblies/Unity.2D.Common.Runtime.dll"
-a="/media/amy/hydrogen_drive/main_storage/unity_projects/Rootkeep/Library/PlayerScriptAssemblies/Unity.2D.SpriteShape.Runtime.dll"
-a="/media/amy/hydrogen_drive/main_storage/unity_projects/Rootkeep/Library/PlayerScriptAssemblies/Unity.VisualScripting.State.dll"
-a="/media/amy/hydrogen_drive/main_storage/unity_projects/Rootkeep/Library/PackageCache/com.unity.burst@1.6.6/Unity.Burst.Unsafe.dll"
-a="/media/amy/hydrogen_drive/main_storage/unity_projects/Rootkeep/Library/PackageCache/com.unity.burst@1.6.6/Unity.Burst.CodeGen/Unity.Burst.Cecil.Mdb.dll"
-a="/media/amy/hydrogen_drive/main_storage/unity_projects/Rootkeep/Library/PackageCache/com.unity.burst@1.6.6/Unity.Burst.CodeGen/Unity.Burst.Cecil.Pdb.dll"
-a="/media/amy/hydrogen_drive/main_storage/unity_projects/Rootkeep/Library/PackageCache/com.unity.burst@1.6.6/Unity.Burst.CodeGen/Unity.Burst.Cecil.dll"
-a="/media/amy/hydrogen_drive/main_storage/unity_projects/Rootkeep/Library/PackageCache/com.unity.burst@1.6.6/Unity.Burst.CodeGen/Unity.Burst.Cecil.Rocks.dll"
-a="/media/amy/hydrogen_drive/main_storage/unity_projects/Rootkeep/Library/PackageCache/com.unity.visualscripting@1.8.0/Runtime/VisualScripting.Flow/Dependencies/NCalc/Unity.VisualScripting.Antlr3.Runtime.dll"
-a="/media/amy/hydrogen_drive/main_storage/unity_projects/Rootkeep/Library/PackageCache/com.unity.ext.nunit@1.0.6/net35/unity-custom/nunit.framework.dll"
-s="/home/amy/Unity/Hub/Editor/2021.3.18f1/Editor/Data/Managed/UnityEngine"
-s="/media/amy/hydrogen_drive/main_storage/unity_projects/Rootkeep/Library/PlayerScriptAssemblies"
-s="/media/amy/hydrogen_drive/main_storage/unity_projects/Rootkeep/Library/PackageCache/com.unity.burst@1.6.6"
-s="/media/amy/hydrogen_drive/main_storage/unity_projects/Rootkeep/Library/PackageCache/com.unity.burst@1.6.6/Unity.Burst.CodeGen"
-s="/media/amy/hydrogen_drive/main_storage/unity_projects/Rootkeep/Library/PackageCache/com.unity.visualscripting@1.8.0/Runtime/VisualScripting.Flow/Dependencies/NCalc"
-s="/media/amy/hydrogen_drive/main_storage/unity_projects/Rootkeep/Library/PackageCache/com.unity.ext.nunit@1.0.6/net35/unity-custom"
-s="/home/amy/Unity/Hub/Editor/2021.3.18f1/Editor/Data/Managed/UnityEngine"
-s="/home/amy/Unity/Hub/Editor/2021.3.18f1/Editor/Data/NetStandard/ref/2.1.0"
-s="/home/amy/Unity/Hub/Editor/2021.3.18f1/Editor/Data/NetStandard/compat/2.1.0/shims/netstandard"
-s="/home/amy/Unity/Hub/Editor/2021.3.18f1/Editor/Data/NetStandard/Extensions/2.0.0"
-s="/home/amy/Unity/Hub/Editor/2021.3.18f1/Editor/Data/NetStandard/compat/2.1.0/shims/netfx"
-o="/media/amy/hydrogen_drive/main_storage/unity_projects/Rootkeep/Library/BuildPlayerData/Player"
-rn="RuntimeInitializeOnLoads.json"
-tn="TypeDb-All.json"
