%YAML 1.1
%TAG !u! tag:unity3d.com,2011:
--- !u!1001 &5045600744580644383
PrefabInstance:
  m_ObjectHideFlags: 0
  serializedVersion: 2
  m_Modification:
    m_TransformParent: {fileID: 0}
    m_Modifications:
    - target: {fileID: 5766559331665479817, guid: aee3cd127680ec7379582baaa019e0e5, type: 3}
      propertyPath: m_RootOrder
      value: 0
      objectReference: {fileID: 0}
    - target: {fileID: 5766559331665479817, guid: aee3cd127680ec7379582baaa019e0e5, type: 3}
      propertyPath: m_LocalPosition.x
      value: 2.79
      objectReference: {fileID: 0}
    - target: {fileID: 5766559331665479817, guid: aee3cd127680ec7379582baaa019e0e5, type: 3}
      propertyPath: m_LocalPosition.y
      value: 2
      objectReference: {fileID: 0}
    - target: {fileID: 5766559331665479817, guid: aee3cd127680ec7379582baaa019e0e5, type: 3}
      propertyPath: m_LocalPosition.z
      value: 0
      objectReference: {fileID: 0}
    - target: {fileID: 5766559331665479817, guid: aee3cd127680ec7379582baaa019e0e5, type: 3}
      propertyPath: m_LocalRotation.w
      value: 1
      objectReference: {fileID: 0}
    - target: {fileID: 5766559331665479817, guid: aee3cd127680ec7379582baaa019e0e5, type: 3}
      propertyPath: m_LocalRotation.x
      value: -0
      objectReference: {fileID: 0}
    - target: {fileID: 5766559331665479817, guid: aee3cd127680ec7379582baaa019e0e5, type: 3}
      propertyPath: m_LocalRotation.y
      value: -0
      objectReference: {fileID: 0}
    - target: {fileID: 5766559331665479817, guid: aee3cd127680ec7379582baaa019e0e5, type: 3}
      propertyPath: m_LocalRotation.z
      value: -0
      objectReference: {fileID: 0}
    - target: {fileID: 5766559331665479817, guid: aee3cd127680ec7379582baaa019e0e5, type: 3}
      propertyPath: m_LocalEulerAnglesHint.x
      value: 0
      objectReference: {fileID: 0}
    - target: {fileID: 5766559331665479817, guid: aee3cd127680ec7379582baaa019e0e5, type: 3}
      propertyPath: m_LocalEulerAnglesHint.y
      value: 0
      objectReference: {fileID: 0}
    - target: {fileID: 5766559331665479817, guid: aee3cd127680ec7379582baaa019e0e5, type: 3}
      propertyPath: m_LocalEulerAnglesHint.z
      value: 0
      objectReference: {fileID: 0}
    - target: {fileID: 6439111103928776065, guid: aee3cd127680ec7379582baaa019e0e5, type: 3}
      propertyPath: m_Name
      value: PreviewTileForbidden Variant
      objectReference: {fileID: 0}
    - target: {fileID: 6439111103928776065, guid: aee3cd127680ec7379582baaa019e0e5, type: 3}
      propertyPath: m_IsActive
      value: 1
      objectReference: {fileID: 0}
    - target: {fileID: 7443998568507476631, guid: aee3cd127680ec7379582baaa019e0e5, type: 3}
      propertyPath: m_Color.b
      value: 0.16470589
      objectReference: {fileID: 0}
    - target: {fileID: 7443998568507476631, guid: aee3cd127680ec7379582baaa019e0e5, type: 3}
      propertyPath: m_Color.g
      value: 0.1254902
      objectReference: {fileID: 0}
    - target: {fileID: 7443998568507476631, guid: aee3cd127680ec7379582baaa019e0e5, type: 3}
      propertyPath: m_Color.r
      value: 0.7058824
      objectReference: {fileID: 0}
    m_RemovedComponents: []
  m_SourcePrefab: {fileID: 100100000, guid: aee3cd127680ec7379582baaa019e0e5, type: 3}
